Data cleaning for social scientists - 4 Manipulation with dplyr
…
Keep in mind that you can throw any function into mutate() as long as it is vectorized and the output has the same length as the tibble or 1.

4.1.4 summarize() and group_by

When you analyze data, you often want to compare entities according to some sort of summary statistic. This means that you, first, need to split up your data set into certain groups which share one or more characteristics, and, second, collapse the columns together into single-row summaries. The former challenge is accomplished using group_by() whose argument is one or more variables, the latter requires the summarize() function. This function works similar to mutate() but uses summary functions – which take a vector of multiple values and return a single value – instead of window functions – which return a vector of the same length as the input.

Let me provide you an example.

I am interested in the director’s average ratings:

imdb_selected |> 
  group_by(director) |> 
  summarize(avg_rating = mean(rating))

# A tibble: 644 × 2
   director            avg_rating
   <chr>                    <dbl>
 1 Aamir Khan                 8.5
 2 Abdellatif Kechiche        7.8
 3 Adam Leon                  6.5
 4 Adam McKay                 7  
 5 Adam Shankman              6.3
 6 Adam Wingard               5.9
 7 Afonso Poyart              6.4
 8 Aisling Walsh              7.8
 9 Akan Satayev               6.3
10 Akiva Schaffer             6.7
# … with 634 more rows
…
Summary functions in R

Another handy function akin to this is count(). It counts all occurrences of a singular value in the tibble.

If I were interested in how many movies of the different directors have made it into the data set, I could use this code:

imdb_selected |> 
  count(director)

# A tibble: 644 × 2
   director                n
   <chr>               <int>
 1 Aamir Khan              1
 2 Abdellatif Kechiche     1
 3 Adam Leon               1
 4 Adam McKay              4
 5 Adam Shankman           2
 6 Adam Wingard            2
 7 Afonso Poyart           1
 8 Aisling Walsh           1
 9 Akan Satayev            1
10 Akiva Schaffer          1
# … with 634 more rows

Beyond that, you can also use group_by() with mutate. If you do so, the rows will not be collapsed together as in summarize().

4.1.5 arrange()

Finally, you can also sort values using arrange(). In the last section, I was interested in directors’ respective average ratings. The values were ordered according to their name (hence, “Aamir Khan” was first). In this case, the order dos not make too much sense, because the first name does not say too much about the director’s ratings. Therefore, I want to sort them according to their average ratings:

imdb_selected |> 
  group_by(director) |> 
  summarize(avg_rating = mean(rating)) |> 
  arrange(avg_rating)

# A tibble: 644 × 2
   director           avg_rating
   <chr>                   <dbl>
 1 Jason Friedberg           1.9
 2 James Wong                2.7
 3 Shawn Burkett             2.7
 4 Jonathan Holbrook         3.2
 5 Femi Oyeniran             3.5
 6 Micheal Bafaro            3.5
 7 Jeffrey G. Hunt           3.7
 8 Rolfe Kanefsky            3.9
 9 Joey Curtis               4  
10 Sam Taylor-Johnson        4.1
# … with 634 more rows

All right, Jason Friedberg is apparently the director of the worst rated movie in my data set. But it would be more handy, if they were arranged in descending order. I can use desc() for this:

imdb_selected |> 
  group_by(director) |> 
  summarize(avg_rating = mean(rating)) |> 
  arrange(-avg_rating)

# A tibble: 644 × 2
   director                         avg_rating
   <chr>                                 <dbl>
 1 Nitesh Tiwari                          8.8 
 2 Christopher Nolan                      8.68
 3 Makoto Shinkai                         8.6 
 4 Olivier Nakache                        8.6 
 5 Aamir Khan                             8.5 
 6 Florian Henckel von Donnersmarck       8.5 
 7 Damien Chazelle                        8.4 
 8 Naoko Yamada                           8.4 
 9 Amber Tamblyn                          8.3 
10 Lee Unkrich                            8.3 
# … with 634 more rows
…
election_data12 <- election_data |> 
  select(name, state, per_dem_2012:partywinner12)

demographic_data <- election_data |> 
  select(name, state, pop:hh_income) |> 
  slice(1:2000)

4.2.3 left_join() and right_join()

election_data16 |> 
  left_join(demographic_data)

Joining, by = c("name", "state")

# A tibble: 3,141 × 17
   name     state votes…¹ votes…² total…³ per_d…⁴ per_g…⁵ diff_…⁶ winner party…⁷
   <chr>    <chr>   <dbl>   <dbl>   <dbl>   <dbl>   <dbl>   <dbl> <chr>  <chr>  
 1 Adams C… IL       7633   22732   31770   0.240   0.716   15099 Trump  Republ…
 2 Alexand… IL       1262    1496    2820   0.448   0.530     234 Trump  Republ…
 3 Bond Co… IL       2066    4884    7462   0.277   0.655    2818 Trump  Republ…
 4 Boone C… IL       8952   12261   22604   0.396   0.542    3309 Trump  Republ…
 5 Brown C… IL        475    1776    2336   0.203   0.760    1301 Trump  Republ…
 6 Bureau … IL       6010    9264   16303   0.369   0.568    3254 Trump  Republ…
 7 Calhoun… IL        739    1719    2556   0.289   0.673     980 Trump  Republ…
 8 Carroll… IL       2437    4428    7354   0.331   0.602    1991 Trump  Republ…
 9 Cass Co… IL       1617    3216    5054   0.320   0.636    1599 Trump  Republ…
10 Champai… IL      49694   33235   89196   0.557   0.373   16459 Clint… Democr…
# … with 3,131 more rows, 7 more variables: pop <dbl>, female <dbl>,
#   white <dbl>, black <dbl>, travel_time <dbl>, land_area <dbl>,
#   hh_income <dbl>, and abbreviated variable names ¹​votes_dem_2016,
#   ²​votes_gop_2016, ³​total_votes_2016, ⁴​per_dem_2016, ⁵​per_gop_2016,
#   ⁶​diff_2016, ⁷​partywinner16

If the column that both data sets have in common has the same name, there’s no need to provide it. If this is not the case, you need to provide it in a character vector:

election_data16 |> 
  rename(county = name) |> 
  right_join(demographic_data, by = c("county" = "name"))

# A tibble: 10,348 × 18
   county state.x votes…¹ votes…² total…³ per_d…⁴ per_g…⁵ diff_…⁶ winner party…⁷
   <chr>  <chr>     <dbl>   <dbl>   <dbl>   <dbl>   <dbl>   <dbl> <chr>  <chr>  
 1 Adams… IL         7633   22732   31770   0.240   0.716   15099 Trump  Republ…
 2 Adams… IL         7633   22732   31770   0.240   0.716   15099 Trump  Republ…
 3 Adams… IL         7633   22732   31770   0.240   0.716   15099 Trump  Republ…
 4 Adams… IL         7633   22732   31770   0.240   0.716   15099 Trump  Republ…
 5 Adams… IL         7633   22732   31770   0.240   0.716   15099 Trump  Republ…
 6 Adams… IL         7633   22732   31770   0.240   0.716   15099 Trump  Republ…
 7 Adams… IL         7633   22732   31770   0.240   0.716   15099 Trump  Republ…
 8 Adams… IL         7633   22732   31770   0.240   0.716   15099 Trump  Republ…
 9 Adams… IL         7633   22732   31770   0.240   0.716   15099 Trump  Republ…
10 Alexa… IL         1262    1496    2820   0.448   0.530     234 Trump  Republ…
# … with 10,338 more rows, 8 more variables: state.y <chr>, pop <dbl>,
#   female <dbl>, white <dbl>, black <dbl>, travel_time <dbl>, land_area <dbl>,
#   hh_income <dbl>, and abbreviated variable names ¹​votes_dem_2016,
#   ²​votes_gop_2016, ³​total_votes_2016, ⁴​per_dem_2016, ⁵​per_gop_2016,
#   ⁶​diff_2016, ⁷​partywinner16

Here, the problem is that the same counties exist in different states. Therefore, all combinations are returned. Hence, I need to specify two arguments: the county’s name and state.

election_data16 |> 
  rename(county = name) |> 
  right_join(demographic_data, by = c("county" = "name", "state"))

# A tibble: 2,000 × 17
   county   state votes…¹ votes…² total…³ per_d…⁴ per_g…⁵ diff_…⁶ winner party…⁷
   <chr>    <chr>   <dbl>   <dbl>   <dbl>   <dbl>   <dbl>   <dbl> <chr>  <chr>  
 1 Adams C… IL       7633   22732   31770   0.240   0.716   15099 Trump  Republ…
 2 Alexand… IL       1262    1496    2820   0.448   0.530     234 Trump  Republ…
 3 Bond Co… IL       2066    4884    7462   0.277   0.655    2818 Trump  Republ…
 4 Boone C… IL       8952   12261   22604   0.396   0.542    3309 Trump  Republ…
 5 Brown C… IL        475    1776    2336   0.203   0.760    1301 Trump  Republ…
 6 Bureau … IL       6010    9264   16303   0.369   0.568    3254 Trump  Republ…
 7 Calhoun… IL        739    1719    2556   0.289   0.673     980 Trump  Republ…
 8 Carroll… IL       2437    4428    7354   0.331   0.602    1991 Trump  Republ…
 9 Cass Co… IL       1617    3216    5054   0.320   0.636    1599 Trump  Republ…
10 Champai… IL      49694   33235   89196   0.557   0.373   16459 Clint… Democr…
# … with 1,990 more rows, 7 more variables: pop <dbl>, female <dbl>,
#   white <dbl>, black <dbl>, travel_time <dbl>, land_area <dbl>,
#   hh_income <dbl>, and abbreviated variable names ¹​votes_dem_2016,
#   ²​votes_gop_2016, ³​total_votes_2016, ⁴​per_dem_2016, ⁵​per_gop_2016,
#   ⁶​diff_2016, ⁷​partywinner16

Left joins return all rows which are in x. If a column is in x but not in y, an NA will be included at this position. Right joins work vice versa.

4.2.4 inner_join()

election_data16 |> 
  inner_join(demographic_data)

Joining, by = c("name", "state")

# A tibble: 2,000 × 17
   name     state votes…¹ votes…² total…³ per_d…⁴ per_g…⁵ diff_…⁶ winner party…⁷
   <chr>    <chr>   <dbl>   <dbl>   <dbl>   <dbl>   <dbl>   <dbl> <chr>  <chr>  
 1 Adams C… IL       7633   22732   31770   0.240   0.716   15099 Trump  Republ…
 2 Alexand… IL       1262    1496    2820   0.448   0.530     234 Trump  Republ…
 3 Bond Co… IL       2066    4884    7462   0.277   0.655    2818 Trump  Republ…
 4 Boone C… IL       8952   12261   22604   0.396   0.542    3309 Trump  Republ…
 5 Brown C… IL        475    1776    2336   0.203   0.760    1301 Trump  Republ…
 6 Bureau … IL       6010    9264   16303   0.369   0.568    3254 Trump  Republ…
 7 Calhoun… IL        739    1719    2556   0.289   0.673     980 Trump  Republ…
 8 Carroll… IL       2437    4428    7354   0.331   0.602    1991 Trump  Republ…
 9 Cass Co… IL       1617    3216    5054   0.320   0.636    1599 Trump  Republ…
10 Champai… IL      49694   33235   89196   0.557   0.373   16459 Clint… Democr…
# … with 1,990 more rows, 7 more variables: pop <dbl>, female <dbl>,
#   white <dbl>, black <dbl>, travel_time <dbl>, land_area <dbl>,
#   hh_income <dbl>, and abbreviated variable names ¹​votes_dem_2016,
#   ²​votes_gop_2016, ³​total_votes_2016, ⁴​per_dem_2016, ⁵​per_gop_2016,
#   ⁶​diff_2016, ⁷​partywinner16

An inner_join() returns all rows which are in x and y.

4.2.5 full_join()

election_data16 |> 
  full_join(demographic_data)

Joining, by = c("name", "state")

# A tibble: 3,141 × 17
   name     state votes…¹ votes…² total…³ per_d…⁴ per_g…⁵ diff_…⁶ winner party…⁷
   <chr>    <chr>   <dbl>   <dbl>   <dbl>   <dbl>   <dbl>   <dbl> <chr>  <chr>  
 1 Adams C… IL       7633   22732   31770   0.240   0.716   15099 Trump  Republ…
 2 Alexand… IL       1262    1496    2820   0.448   0.530     234 Trump  Republ…
 3 Bond Co… IL       2066    4884    7462   0.277   0.655    2818 Trump  Republ…
 4 Boone C… IL       8952   12261   22604   0.396   0.542    3309 Trump  Republ…
 5 Brown C… IL        475    1776    2336   0.203   0.760    1301 Trump  Republ…
 6 Bureau … IL       6010    9264   16303   0.369   0.568    3254 Trump  Republ…
 7 Calhoun… IL        739    1719    2556   0.289   0.673     980 Trump  Republ…
 8 Carroll… IL       2437    4428    7354   0.331   0.602    1991 Trump  Republ…
 9 Cass Co… IL       1617    3216    5054   0.320   0.636    1599 Trump  Republ…
10 Champai… IL      49694   33235   89196   0.557   0.373   16459 Clint… Democr…
# … with 3,131 more rows, 7 more variables: pop <dbl>, female <dbl>,
#   white <dbl>, black <dbl>, travel_time <dbl>, land_area <dbl>,
#   hh_income <dbl>, and abbreviated variable names ¹​votes_dem_2016,
#   ²​votes_gop_2016, ³​total_votes_2016, ⁴​per_dem_2016, ⁵​per_gop_2016,
#   ⁶​diff_2016, ⁷​partywinner16

A full_join() returns rows and columns from both x and y.

4.2.6 semi_join()

Filtering joins only keep the cases from x, no data set is added.

election_data16 |> 
  semi_join(demographic_data)

Joining, by = c("name", "state")

# A tibble: 2,000 × 10
   name     state votes…¹ votes…² total…³ per_d…⁴ per_g…⁵ diff_…⁶ winner party…⁷
   <chr>    <chr>   <dbl>   <dbl>   <dbl>   <dbl>   <dbl>   <dbl> <chr>  <chr>  
 1 Adams C… IL       7633   22732   31770   0.240   0.716   15099 Trump  Republ…
 2 Alexand… IL       1262    1496    2820   0.448   0.530     234 Trump  Republ…
 3 Bond Co… IL       2066    4884    7462   0.277   0.655    2818 Trump  Republ…
 4 Boone C… IL       8952   12261   22604   0.396   0.542    3309 Trump  Republ…
 5 Brown C… IL        475    1776    2336   0.203   0.760    1301 Trump  Republ…
 6 Bureau … IL       6010    9264   16303   0.369   0.568    3254 Trump  Republ…
 7 Calhoun… IL        739    1719    2556   0.289   0.673     980 Trump  Republ…
 8 Carroll… IL       2437    4428    7354   0.331   0.602    1991 Trump  Republ…
 9 Cass Co… IL       1617    3216    5054   0.320   0.636    1599 Trump  Republ…
10 Champai… IL      49694   33235   89196   0.557   0.373   16459 Clint… Democr…
# … with 1,990 more rows, and abbreviated variable names ¹​votes_dem_2016,
#   ²​votes_gop_2016, ³​total_votes_2016, ⁴​per_dem_2016, ⁵​per_gop_2016,
#   ⁶​diff_2016, ⁷​partywinner16

The semi_join() returns all rows from x with matching values in y. You can compare it to a right_join() but without adding the columns of y.

4.2.7 anti_join()

election_data16 |> 
  anti_join(demographic_data)

Joining, by = c("name", "state")

# A tibble: 1,141 × 10
   name     state votes…¹ votes…² total…³ per_d…⁴ per_g…⁵ diff_…⁶ winner party…⁷
   <chr>    <chr>   <dbl>   <dbl>   <dbl>   <dbl>   <dbl>   <dbl> <chr>  <chr>  
 1 Onslow … NC      17156   36342   55364   0.310   0.656   19186 Trump  Republ…
 2 Orange … NC      59105   18373   79830   0.740   0.230   40732 Clint… Democr…
 3 Pamlico… NC       2427    4225    6772   0.358   0.624    1798 Trump  Republ…
 4 Pasquot… NC       8455    8082   16964   0.498   0.476     373 Clint… Democr…
 5 Pender … NC       9086   17317   27072   0.336   0.640    8231 Trump  Republ…
 6 Perquim… NC       2291    4143    6595   0.347   0.628    1852 Trump  Republ…
 7 Person … NC       7772   11116   19303   0.403   0.576    3344 Trump  Republ…
 8 Pitt Co… NC      40967   35191   78264   0.523   0.450    5776 Clint… Democr…
 9 Polk Co… NC       3715    6738   10723   0.346   0.628    3023 Trump  Republ…
10 Randolp… NC      13074   49156   63615   0.206   0.773   36082 Trump  Republ…
# … with 1,131 more rows, and abbreviated variable names ¹​votes_dem_2016,
#   ²​votes_gop_2016, ³​total_votes_2016, ⁴​per_dem_2016, ⁵​per_gop_2016,
#   ⁶​diff_2016, ⁷​partywinner16
…
4.2.8 bind_rows() and bind_cols()

Binding tibbles together is made easy using the bind_*() functions. bind_rows() binds them together by rows, bind_cols() by columns. For the former, it is important that column names are matching. Otherwise, the non-matching ones will be added as separate columns and NAs introduced. IDs can be added by using the .id = argument, where the name of the id column can be specified.

election_data16 |> 
  semi_join(demographic_data) |> 
  bind_rows(election_data16 |>
              anti_join(demographic_data),
            .id = "id")

Joining, by = c("name", "state")
Joining, by = c("name", "state")

# A tibble: 3,141 × 11
   id    name       state votes…¹ votes…² total…³ per_d…⁴ per_g…⁵ diff_…⁶ winner
   <chr> <chr>      <chr>   <dbl>   <dbl>   <dbl>   <dbl>   <dbl>   <dbl> <chr> 
 1 1     Adams Cou… IL       7633   22732   31770   0.240   0.716   15099 Trump 
 2 1     Alexander… IL       1262    1496    2820   0.448   0.530     234 Trump 
 3 1     Bond Coun… IL       2066    4884    7462   0.277   0.655    2818 Trump 
 4 1     Boone Cou… IL       8952   12261   22604   0.396   0.542    3309 Trump 
 5 1     Brown Cou… IL        475    1776    2336   0.203   0.760    1301 Trump 
 6 1     Bureau Co… IL       6010    9264   16303   0.369   0.568    3254 Trump 
 7 1     Calhoun C… IL        739    1719    2556   0.289   0.673     980 Trump 
 8 1     Carroll C… IL       2437    4428    7354   0.331   0.602    1991 Trump 
 9 1     Cass Coun… IL       1617    3216    5054   0.320   0.636    1599 Trump 
10 1     Champaign… IL      49694   33235   89196   0.557   0.373   16459 Clint…
# … with 3,131 more rows, 1 more variable: partywinner16 <chr>, and abbreviated
#   variable names ¹​votes_dem_2016, ²​votes_gop_2016, ³​total_votes_2016,
#   ⁴​per_dem_2016, ⁵​per_gop_2016, ⁶​diff_2016
For bind_cols(), the length has to be the same. Duplicated column names will be changed.

election_data12 |> bind_cols(election_data16)

New names:
• `name` -> `name...1`
• `state` -> `state...2`
• `winner` -> `winner...6`
• `partywinner16` -> `partywinner16...7`
• `name` -> `name...10`
• `state` -> `state...11`
• `winner` -> `winner...18`
• `partywinner16` -> `partywinner16...19`

# A tibble: 3,141 × 19
   name...1      state…¹ per_d…² per_g…³ diff_…⁴ winne…⁵ party…⁶ winne…⁷ party…⁸
   <chr>         <chr>     <dbl>   <dbl>   <dbl> <chr>   <chr>   <chr>   <chr>  
 1 Adams County  IL        0.315   0.667   10744 Trump   Republ… Romney  Republ…
 2 Alexander Co… IL        0.561   0.425     476 Trump   Republ… Obama   Democr…
 3 Bond County   IL        0.412   0.559    1075 Trump   Republ… Romney  Republ…
 4 Boone County  IL        0.463   0.520    1216 Trump   Republ… Romney  Republ…
 5 Brown County  IL        0.333   0.640     724 Trump   Republ… Romney  Republ…
 6 Bureau County IL        0.489   0.491      33 Trump   Republ… Romney  Republ…
 7 Calhoun Coun… IL        0.419   0.559     360 Trump   Republ… Romney  Republ…
 8 Carroll Coun… IL        0.496   0.482     107 Trump   Republ… Obama   Democr…
 9 Cass County   IL        0.422   0.557     657 Trump   Republ… Romney  Republ…
10 Champaign Co… IL        0.520   0.452    5292 Clinton Democr… Obama   Democr…
# … with 3,131 more rows, 10 more variables: name...10 <chr>, state...11 <chr>,
#   votes_dem_2016 <dbl>, votes_gop_2016 <dbl>, total_votes_2016 <dbl>,
#   per_dem_2016 <dbl>, per_gop_2016 <dbl>, diff_2016 <dbl>, winner...18 <chr>,
#   partywinner16...19 <chr>, and abbreviated variable names ¹​state...2,
#   ²​per_dem_2012, ³​per_gop_2012, ⁴​diff_2012, ⁵​winner...6, ⁶​partywinner16...7,
#   ⁷​winner12, ⁸​partywinner12
…
